{
  "general": {
    "customer_name": "dhl",
    "bucket_name": "mhspredict-site-dhl-miami",
    "site_name": "dhl-miami",
    "gateway_name": "dhl-miami"
  },
  "database": {
    "host": "mhspredict-prod.cluster-c2z9g3wxqyud.us-east-1.rds.amazonaws.com",
    "port": "5432",
    "schema": "dhl_miami",
    "username": "developer"
  },
  "s3": {
    "encryption": {
      "Rules": [
        {
          "ApplyServerSideEncryptionByDefault": {
            "SSEAlgorithm": "AES256"
          }
        }
      ]
    },
    "lambda_permissions": [
      {
        "FunctionName": "arn:aws:lambda:us-east-1:286214959794:function:s3_data_etl",
        "StatementId": "mhspredict-site-dhl-miami-c0a0b6c2-e222-4307-b535-d410ca9e31b2-master",
        "Action": "lambda:InvokeFunction",
        "Principal": "s3.amazonaws.com",
        "SourceArn": "arn:aws:s3:::mhspredict-site-dhl-miami",
        "SourceAccount": "286214959794",
        "Qualifier": "master"
      }
    ],
    "events": {
      "LambdaFunctionConfigurations": [
        {
          "Id": "s3_data_etl_heartbeat",
          "LambdaFunctionArn": "arn:aws:lambda:us-east-1:286214959794:function:s3_data_etl:master",
          "Events": [
            "s3:ObjectCreated:Put"
          ],
          "Filter": {
            "Key": {
              "FilterRules": [
                {
                  "Name": "prefix",
                  "Value": "dhl-miami/heartbeat.unixtimestamp"
                }
              ]
            }
          }
        },
        {
          "Id": "sensor_etl",
          "LambdaFunctionArn": "arn:aws:lambda:us-east-1:286214959794:function:s3_data_etl:master",
          "Events": [
            "s3:ObjectCreated:Put"
          ],
          "Filter": {
            "Key": {
              "FilterRules": [
                {
                  "Name": "prefix",
                  "Value": "dhl-miami/sensor/"
                }
              ]
            }
          }
        },
        {
          "Id": "plc_etl",
          "LambdaFunctionArn": "arn:aws:lambda:us-east-1:286214959794:function:s3_data_etl:master",
          "Events": [
            "s3:ObjectCreated:Put"
          ],
          "Filter": {
            "Key": {
              "FilterRules": [
                {
                  "Name": "prefix",
                  "Value": "dhl-miami/plc/"
                }
              ]
            }
          }
        },
        {
          "Id": "ambient_env_etl",
          "LambdaFunctionArn": "arn:aws:lambda:us-east-1:286214959794:function:s3_data_etl:master",
          "Events": [
            "s3:ObjectCreated:Put"
          ],
          "Filter": {
            "Key": {
              "FilterRules": [
                {
                  "Name": "prefix",
                  "Value": "dhl-miami/ambient_env/"
                }
              ]
            }
          }
        }
      ]
    }
  },
  "iot": {
    "thing_name": "dhl-miami_Core",
    "cert_policy": {
      "Version": "2012-10-17",
      "Statement": [
        {
          "Effect": "Allow",
          "Action": [
            "iot:Publish",
            "iot:Subscribe",
            "iot:Connect",
            "iot:Receive"
          ],
          "Resource": [
            "*"
          ]
        },
        {
          "Effect": "Allow",
          "Action": [
            "iot:GetThingShadow",
            "iot:UpdateThingShadow",
            "iot:DeleteThingShadow"
          ],
          "Resource": [
            "*"
          ]
        },
        {
          "Effect": "Allow",
          "Action": [
            "greengrass:*"
          ],
          "Resource": [
            "*"
          ]
        }
      ]
    }
  },
  "greengrass": {
    "gateway_hardware": {
      "connection": {
        "host": "166.252.134.244",
        "port": 22,
        "user": "mhs-predict",
        "pwd": "6#fVD6Yp^7Up/EB<",
        "key_path": ""
      },
      "ggc_path": "/opt/greengrass",
      "ggc_config": {
        "coreThing": {
          "caPath": "root.ca.pem",
          "certPath": "38f4eba5f7.cert.pem",
          "keyPath": "38f4eba5f7.private.key",
          "thingArn": "arn:aws:iot:us-east-1:286214959794:thing/dhl-miami_Core",
          "iotHost": "alps0oc9fcddm.iot.us-east-1.amazonaws.com",
          "ggHost": "greengrass.iot.us-east-1.amazonaws.com"
        },
        "runtime": {
          "cgroup": {
            "useSystemd": "yes"
          }
        },
        "managedRespawn": false
      },
      "cert_id": "38f4eba5f7"
    },
    "thing_connectivity": [
      {
        "HostAddress": "127.0.0.1",
        "Id": "dhl-miami_local_v4",
        "PortNumber": 8883
      },
      {
        "HostAddress": "::1",
        "Id": "dhl-miami_local_v6",
        "PortNumber": 8883
      }
    ],
    "role_arn": "arn:aws:iam::286214959794:role/AWSGreengrassAccessRole",
    "definitions": {
      "group_id": "202b2c75-27b3-499d-a2ce-8054a66b38e9",
      "logger_def_id": "cb1e2aee-e068-4ed5-9bd4-64176c806fcd",
      "resource_def_id": "267e466b-6f9c-44dc-821c-ef97349ebc6c",
      "function_def_id": "5f7dddc3-cc92-4dae-a910-12a90b03cc1e",
      "subscription_def_id": "5e750df2-fecd-4a90-8151-84aebbdaf42f",
      "core_def_id": "5efdc807-9152-4c6b-bd61-723093a3f943",
      "core_def_version_arn": "arn:aws:greengrass:us-east-1:286214959794:/greengrass/definition/cores/5efdc807-9152-4c6b-bd61-723093a3f943/versions/5df67963-89d3-4786-9c24-787873de18f3"
    },
    "loggers": [
      {
        "Component": "GreengrassSystem",
        "Id": "dhl-miami_system_logger",
        "Level": "INFO",
        "Space": 1000000,
        "Type": "FileSystem"
      },
      {
        "Component": "Lambda",
        "Id": "dhl-miami_lambda_logger",
        "Level": "INFO",
        "Space": 1000000,
        "Type": "FileSystem"
      }
    ],
    "resources": [
      {
        "Id": "dhl-miami_cache_volume",
        "Name": "cache_volume",
        "ResourceDataContainer": {
          "LocalVolumeResourceData": {
            "GroupOwnerSetting": {
              "AutoAddGroupOwner": false
            },
            "DestinationPath": "/var/cache/gateway_cache",
            "SourcePath": "/var/cache/gateway_cache"
          }
        }
      },
      {
        "Id": "dhl-miami_ttyS4",
        "Name": "ttyS4",
        "ResourceDataContainer": {
          "LocalDeviceResourceData": {
            "GroupOwnerSetting": {
              "GroupOwner": "dialout"
            },
            "SourcePath": "/dev/ttyS4"
          }
        }
      },
      {
        "Id": "dhl-miami_ttyS5",
        "Name": "ttyS5",
        "ResourceDataContainer": {
          "LocalDeviceResourceData": {
            "GroupOwnerSetting": {
              "GroupOwner": "dialout"
            },
            "SourcePath": "/dev/ttyS5"
          }
        }
      },
      {
        "Id": "dhl-miami_ttyS2",
        "Name": "ttyS2",
        "ResourceDataContainer": {
          "LocalDeviceResourceData": {
            "GroupOwnerSetting": {
              "GroupOwner": "dialout"
            },
            "SourcePath": "/dev/ttyS2"
          }
        }
      }
    ],
    "subscriptions": [
      {
        "Id": "dhl-miami-ssh-tunnel",
        "Source": "arn:aws:lambda:us-east-1:286214959794:function:gateway-tunnel:master",
        "Subject": "dhl-miami/ssh-tunnel",
        "Target": "cloud"
      },
      {
        "Id": "dhl-miami-ssh-tunnel-invoke",
        "Source": "cloud",
        "Subject": "dhl-miami/ssh-tunnel/invoke",
        "Target": "arn:aws:lambda:us-east-1:286214959794:function:gateway-tunnel:master"
      }
    ],
    "functions": [
      {
        "Id": "dhl-miami_gateway-reader",
        "FunctionArn": "arn:aws:lambda:us-east-1:286214959794:function:gateway-reader:master",
        "FunctionConfiguration": {
          "EncodingType": "json",
          "Environment": {
            "AccessSysfs": false,
            "ResourceAccessPolicies": [
              {
                "Permission": "rw",
                "ResourceId": "dhl-miami_cache_volume"
              },
              {
                "Permission": "rw",
                "ResourceId": "dhl-miami_ttyS4"
              },
              {
                "Permission": "rw",
                "ResourceId": "dhl-miami_ttyS5"
              },
              {
                "Permission": "rw",
                "ResourceId": "dhl-miami_ttyS2"
              }
            ],
            "Variables": {
              "GATEWAY": "dhl-miami",
              "CONNECTOR": "connector.s3.Connector",
              "CONNECTOR_KWARGS": "{\"bucket_name\": \"mhspredict-site-dhl-miami\"}",
              "SITE": "dhl-miami",
              "DEVICE_SCHEMA": "{\"/dev/ttyS4\": [{\"devices\": [\"77\", \"74\", \"56\", \"38\", \"37\", \"25\", \"17\", \"11\", \"2\", \"45\", \"85\", \"10\", \"91\", \"22\", \"50\", \"41\", \"95\", \"15\", \"90\", \"31\", \"33\", \"8\", \"94\", \"16\", \"26\", \"18\", \"44\", \"42\"], \"interval\": 10.0, \"options\": {\"baudrate\": 19200, \"timeout\": 0.1}, \"type\": \"qm42vt2\"}], \"/dev/ttyS5\": [{\"devices\": [\"63\", \"67\", \"71\", \"72\", \"61\", \"62\", \"68\", \"82\", \"70\", \"57\", \"80\", \"13\", \"34\", \"12\", \"20\", \"40\", \"6\", \"28\", \"87\", \"86\", \"89\", \"32\", \"29\", \"88\", \"3\", \"5\", \"7\", \"21\", \"39\", \"46\", \"51\", \"58\", \"60\", \"64\", \"65\", \"73\", \"75\", \"47\"], \"interval\": 10.0, \"options\": {\"baudrate\": 19200, \"timeout\": 0.1}, \"type\": \"qm42vt2\"}], \"/dev/ttyS2\": [{\"devices\": [\"14\", \"24\", \"36\", \"48\", \"49\", \"55\", \"66\", \"76\", \"83\", \"84\", \"54\", \"69\", \"81\", \"59\", \"23\", \"78\", \"27\", \"19\", \"30\", \"43\", \"99\"], \"interval\": 10.0, \"options\": {\"baudrate\": 19200, \"timeout\": 0.1}, \"type\": \"qm42vt2\"}], \"enip\": [{\"devices\": [\"T2_F2_1_UPLOAD\", \"XR_F1_2PT_UPLOAD\", \"T2_F1_4PT_UPLOAD\", \"T2_F1_3_UPLOAD\", \"T2_F1_2PT_UPLOAD\", \"T2_F1_1_UPLOAD\", \"PF_F1_5PT_UPLOAD\", \"LF_F1_5PT_UPLOAD\", \"LF_F1_4_UPLOAD\", \"LF_F1_3PT_UPLOAD\", \"PF_F1_4_UPLOAD\", \"PF_F1_3PT_UPLOAD\", \"LF_F1_2_UPLOAD\", \"PF_F1_2_UPLOAD\", \"LF_F1_1_UPLOAD\", \"PF_F2_3PT_UPLOAD\", \"PF_F2_4_UPLOAD\", \"T1_F1_2PT_UPLOAD\", \"PF_F1_6_UPLOAD\", \"T1_F1_5_UPLOAD\", \"T1_F1_4PT_UPLOAD\", \"HC_F1_2PT_UPLOAD\", \"HC_F1_3PT_UPLOAD\", \"PF_F1_7PT_UPLOAD\", \"LF_F1_7PT_UPLOAD\", \"T2_F1_6PT_UPLOAD\", \"T2_F2_2PT_UPLOAD\"], \"interval\": 60.0, \"options\": {\"plc_host\": \"192.168.1.1\", \"plc_port\": 44818, \"route_path\": [{\"link\": 0, \"port\": 1}]}, \"type\": \"csv_plc\"}]}",
              "MAPPING_SCHEMA": "{\"csv_plc\": {\"table_key\": \"plc\", \"mapping\": [{\"index\": 3, \"type\": \"int\"}, {\"index\": 5, \"type\": \"float\"}, {\"index\": 4, \"type\": \"float\"}, {\"index\": 6, \"type\": \"float\"}, {\"index\": 7, \"type\": \"int\"}, {\"index\": 8, \"type\": \"int\"}, {\"index\": 9, \"type\": \"int\"}, {\"index\": 10, \"type\": \"string\"}, {\"index\": 11, \"type\": \"int\"}, {\"index\": 12, \"type\": \"int\"}, {\"index\": 13, \"type\": \"int\"}, {\"index\": 14, \"type\": \"int\"}, {\"index\": 15, \"type\": \"int\"}, {\"index\": 16, \"type\": \"int\"}, {\"index\": 17, \"type\": \"int\"}, {\"index\": 18, \"type\": \"float\"}, {\"index\": 19, \"type\": \"int\"}]}}",
              "TABLE_SCHEMA": "{\"plc\": [{\"type\": \"int\", \"name\": \"belt_speed\"}, {\"type\": \"float\", \"name\": \"vfd_current\"}, {\"type\": \"float\", \"name\": \"vfd_frequency\"}, {\"type\": \"float\", \"name\": \"vfd_voltage\"}, {\"type\": \"int\", \"name\": \"vfd_fault_code\"}, {\"type\": \"int\", \"name\": \"sorter_induct_rate\"}, {\"type\": \"int\", \"name\": \"sorter_reject_rate\"}, {\"type\": \"string\", \"name\": \"status\"}, {\"type\": \"int\", \"name\": \"torque\"}, {\"type\": \"int\", \"name\": \"hours_running\"}, {\"type\": \"int\", \"name\": \"power\"}, {\"type\": \"int\", \"name\": \"rpm\"}, {\"type\": \"int\", \"name\": \"horsepower_nameplate\"}, {\"type\": \"int\", \"name\": \"voltage_nameplate\"}, {\"type\": \"int\", \"name\": \"run_speed_nameplate\"}, {\"type\": \"float\", \"name\": \"current_nameplate\"}, {\"type\": \"int\", \"name\": \"num_phases_nameplate\"}]}"
            }
          },
          "Executable": "main.handler",
          "MemorySize": 128000,
          "Pinned": true,
          "Timeout": 30
        }
      },
      {
        "Id": "dhl-miami-gateway-tunnel",
        "FunctionArn": "arn:aws:lambda:us-east-1:286214959794:function:gateway-tunnel:master",
        "FunctionConfiguration": {
          "EncodingType": "json",
          "Environment": {
            "AccessSysfs": false,
            "Variables": {
              "GATEWAY": "dhl-miami"
            }
          },
          "Executable": "main.handler",
          "MemorySize": 128000,
          "Pinned": true,
          "Timeout": 30
        }
      }
    ]
  }
}