{
  "general": {
    "customer_name": "dhl",
    "bucket_name": "mhspredict-site-dhl-brescia",
    "site_name": "dhl-brescia",
    "gateway_name": "dhl-brescia"
  },
  "database": {
    "host": "mhspredict-prod.cluster-c2z9g3wxqyud.us-east-1.rds.amazonaws.com",
    "port": "5432",
    "schema": "dhl_brescia",
    "username": "developer"
  }
}