{
  "general": {
    "customer_name": "dhl",
    "bucket_name": "mhspredict-site-dhl-milano",
    "site_name": "dhl-milano",
    "gateway_name": "dhl-milano"
  },
  "database": {
    "host": "mhspredict-prod.cluster-c2z9g3wxqyud.us-east-1.rds.amazonaws.com",
    "port": "5432",
    "schema": "dhl_milano",
    "username": "developer"
  },
  "s3": {
    "encryption": {
      "Rules": [
        {
          "ApplyServerSideEncryptionByDefault": {
            "SSEAlgorithm": "AES256"
          }
        }
      ]
    },
    "lambda_permissions": [
      {
        "FunctionName": "arn:aws:lambda:us-east-1:286214959794:function:s3_data_etl",
        "StatementId": "mhspredict-site-dhl-milano-48892082-aa1e-4c11-8e87-38489a4fcdf0-master",
        "Action": "lambda:InvokeFunction",
        "Principal": "s3.amazonaws.com",
        "SourceArn": "arn:aws:s3:::mhspredict-site-dhl-milano",
        "SourceAccount": "286214959794",
        "Qualifier": "master"
      }
    ],
    "events": {
      "LambdaFunctionConfigurations": [
        {
          "Id": "s3_data_etl_heartbeat",
          "LambdaFunctionArn": "arn:aws:lambda:us-east-1:286214959794:function:s3_data_etl:master",
          "Events": [
            "s3:ObjectCreated:Put"
          ],
          "Filter": {
            "Key": {
              "FilterRules": [
                {
                  "Name": "prefix",
                  "Value": "dhl-milano/heartbeat.unixtimestamp"
                }
              ]
            }
          }
        },
        {
          "Id": "sensor_etl",
          "LambdaFunctionArn": "arn:aws:lambda:us-east-1:286214959794:function:s3_data_etl:master",
          "Events": [
            "s3:ObjectCreated:Put"
          ],
          "Filter": {
            "Key": {
              "FilterRules": [
                {
                  "Name": "prefix",
                  "Value": "dhl-milano/sensor/"
                }
              ]
            }
          }
        },
        {
          "Id": "plc_etl",
          "LambdaFunctionArn": "arn:aws:lambda:us-east-1:286214959794:function:s3_data_etl:master",
          "Events": [
            "s3:ObjectCreated:Put"
          ],
          "Filter": {
            "Key": {
              "FilterRules": [
                {
                  "Name": "prefix",
                  "Value": "dhl-milano/plc/"
                }
              ]
            }
          }
        },
        {
          "Id": "ambient_env_etl",
          "LambdaFunctionArn": "arn:aws:lambda:us-east-1:286214959794:function:s3_data_etl:master",
          "Events": [
            "s3:ObjectCreated:Put"
          ],
          "Filter": {
            "Key": {
              "FilterRules": [
                {
                  "Name": "prefix",
                  "Value": "dhl-milano/ambient_env/"
                }
              ]
            }
          }
        }
      ]
    }
  },
  "iot": {
    "thing_name": "ocm-milano_Core",
    "cert_policy": {
      "Version": "2012-10-17",
      "Statement": [
        {
          "Effect": "Allow",
          "Action": [
            "iot:Publish",
            "iot:Subscribe",
            "iot:Connect",
            "iot:Receive"
          ],
          "Resource": [
            "*"
          ]
        },
        {
          "Effect": "Allow",
          "Action": [
            "iot:GetThingShadow",
            "iot:UpdateThingShadow",
            "iot:DeleteThingShadow"
          ],
          "Resource": [
            "*"
          ]
        },
        {
          "Effect": "Allow",
          "Action": [
            "greengrass:*"
          ],
          "Resource": [
            "*"
          ]
        }
      ]
    }
  },
  "greengrass": {
    "gateway_hardware": {
      "connection": {
        "host": "10.21.6.47",
        "port": 22,
        "user": "mhspredict",
        "pwd": "2l-/$j7>MDDAy23ai",
        "key_path": ""
      },
      "ggc_path": "/opt/greengrass",
      "ggc_config": {
        "coreThing": {
          "caPath": "root.ca.pem",
          "certPath": "5cfeca642e.cert.pem",
          "keyPath": "5cfeca642e.private.key",
          "thingArn": "arn:aws:iot:us-east-1:286214959794:thing/ocm-milano_Core",
          "iotHost": "alps0oc9fcddm.iot.us-east-1.amazonaws.com",
          "ggHost": "greengrass.iot.us-east-1.amazonaws.com"
        },
        "runtime": {
          "cgroup": {
            "useSystemd": "yes"
          }
        },
        "managedRespawn": false
      },
      "cert_id": "5cfeca642e"
    },
    "thing_connectivity": [
      {
        "HostAddress": "127.0.0.1",
        "Id": "ocm-milano-local-v4",
        "PortNumber": 8883
      },
      {
        "HostAddress": "::1",
        "Id": "ocm-milano-local-v6",
        "PortNumber": 8883
      }
    ],
    "role_arn": "arn:aws:iam::286214959794:role/AWSGreengrassAccessRole",
    "definitions": {
      "group_id": "1d857103-e754-42c4-8687-75262b48cf82",
      "logger_def_id": "16812760-9a2d-4c4c-bef7-158ce61b44e1",
      "resource_def_id": "886de7c0-5fd9-49b3-b168-778927c63151",
      "function_def_id": "035debe7-4afb-4ce2-a7d6-c45040a1a977",
      "subscription_def_id": "8d25911f-14c8-4516-9132-c8725b2f9d1b",
      "core_def_id": "9a0ee6f9-fec8-4424-9d63-63f31977b025",
      "core_def_version_arn": "arn:aws:greengrass:us-east-1:286214959794:/greengrass/definition/cores/9a0ee6f9-fec8-4424-9d63-63f31977b025/versions/4940711f-4bfd-40db-b2e1-834f7b083f75"
    },
    "loggers": [
      {
        "Component": "GreengrassSystem",
        "Id": "ocm-milano-system-logger",
        "Level": "INFO",
        "Space": 1000000,
        "Type": "FileSystem"
      },
      {
        "Component": "Lambda",
        "Id": "ocm-milano-lambda-logger",
        "Level": "INFO",
        "Space": 1000000,
        "Type": "FileSystem"
      }
    ],
    "resources": [
      {
        "Id": "ocm-milano-cache-volume",
        "Name": "cache_volume",
        "ResourceDataContainer": {
          "LocalVolumeResourceData": {
            "GroupOwnerSetting": {
              "AutoAddGroupOwner": false
            },
            "DestinationPath": "/var/cache/gateway_cache",
            "SourcePath": "/var/cache/gateway_cache"
          }
        }
      },
      {
        "Id": "ocm-milano-ttyS2",
        "Name": "ttyS2",
        "ResourceDataContainer": {
          "LocalDeviceResourceData": {
            "GroupOwnerSetting": {
              "GroupOwner": "dialout"
            },
            "SourcePath": "/dev/ttyS2"
          }
        }
      },
      {
        "Id": "ocm-milano-ttyS5",
        "Name": "ttyS5",
        "ResourceDataContainer": {
          "LocalDeviceResourceData": {
            "GroupOwnerSetting": {
              "GroupOwner": "dialout"
            },
            "SourcePath": "/dev/ttyS5"
          }
        }
      },
      {
        "Id": "ocm-milano-ttyS4",
        "Name": "ttyS4",
        "ResourceDataContainer": {
          "LocalDeviceResourceData": {
            "GroupOwnerSetting": {
              "GroupOwner": "dialout"
            },
            "SourcePath": "/dev/ttyS4"
          }
        }
      }
    ],
    "subscriptions": [
      {
        "Id": "dhl-milano-ssh-tunnel",
        "Source": "arn:aws:lambda:us-east-1:286214959794:function:gateway-tunnel:master",
        "Subject": "dhl-milano/ssh-tunnel",
        "Target": "cloud"
      },
      {
        "Id": "dhl-milano-ssh-tunnel-invoke",
        "Source": "cloud",
        "Subject": "dhl-milano/ssh-tunnel/invoke",
        "Target": "arn:aws:lambda:us-east-1:286214959794:function:gateway-tunnel:master"
      }
    ],
    "functions": [
      {
        "Id": "ocm-milano-gateway-reader",
        "FunctionArn": "arn:aws:lambda:us-east-1:286214959794:function:gateway-reader:master",
        "FunctionConfiguration": {
          "EncodingType": "json",
          "Environment": {
            "AccessSysfs": false,
            "ResourceAccessPolicies": [
              {
                "Permission": "rw",
                "ResourceId": "ocm-milano-cache-volume"
              },
              {
                "Permission": "rw",
                "ResourceId": "ocm-milano-ttyS2"
              },
              {
                "Permission": "rw",
                "ResourceId": "ocm-milano-ttyS5"
              },
              {
                "Permission": "rw",
                "ResourceId": "ocm-milano-ttyS4"
              }
            ],
            "Variables": {
              "GATEWAY": "dhl-milano",
              "CONNECTOR": "connector.s3.Connector",
              "CONNECTOR_KWARGS": "{\"bucket_name\": \"mhspredict-site-dhl-milano\"}",
              "SITE": "dhl-milano",
              "DEVICE_SCHEMA": "{\"/dev/ttyS2\": [{\"devices\": [\"36\", \"37\", \"38\", \"39\", \"40\", \"41\", \"42\", \"43\"], \"interval\": 10.0, \"options\": {\"baudrate\": 19200, \"timeout\": 0.1}, \"type\": \"qm42vt2\"}], \"/dev/ttyS5\": [{\"devices\": [\"30\", \"31\", \"32\", \"33\", \"34\", \"35\"], \"interval\": 10.0, \"options\": {\"baudrate\": 19200, \"timeout\": 0.1}, \"type\": \"qm42vt2\"}], \"/dev/ttyS4\": [{\"devices\": [\"44\"], \"interval\": 10.0, \"options\": {\"baudrate\": 19200, \"timeout\": 0.1}, \"type\": \"qm42vt2\"}]}"
            }
          },
          "Executable": "main.handler",
          "MemorySize": 128000,
          "Pinned": true,
          "Timeout": 30
        }
      },
      {
        "Id": "dhl-milano",
        "FunctionArn": "arn:aws:lambda:us-east-1:286214959794:function:gateway-tunnel:master",
        "FunctionConfiguration": {
          "EncodingType": "json",
          "Environment": {
            "AccessSysfs": false,
            "Variables": {
              "GATEWAY": "dhl-milano"
            }
          },
          "Executable": "main.handler",
          "MemorySize": 128000,
          "Pinned": true,
          "Timeout": 30
        }
      }
    ]
  }
}