{
  "general": {
    "customer_name": "fedex",
    "bucket_name": "mhspredict-site-fedex-louisville",
    "site_name": "fedex-louisville",
    "gateway_name": "fedex-louisville"
  },
  "database": {
    "host": "mhspredict-prod.cluster-c2z9g3wxqyud.us-east-1.rds.amazonaws.com",
    "port": "5432",
    "schema": "fedex_louisville",
    "username": "developer"
  },
  "s3": {
    "encryption": {
      "Rules": [
        {
          "ApplyServerSideEncryptionByDefault": {
            "SSEAlgorithm": "AES256"
          }
        }
      ]
    },
    "lambda_permissions": [
      {
        "FunctionName": "arn:aws:lambda:us-east-1:286214959794:function:s3_data_etl",
        "StatementId": "mhspredict-site-fedex-louisville-1a54ed8a-01a7-4693-b01b-86e7b559ec21-master",
        "Action": "lambda:InvokeFunction",
        "Principal": "s3.amazonaws.com",
        "SourceArn": "arn:aws:s3:::mhspredict-site-fedex-louisville",
        "SourceAccount": "286214959794",
        "Qualifier": "master"
      }
    ],
    "events": {
      "LambdaFunctionConfigurations": [
        {
          "Id": "s3_data_etl_heartbeat",
          "LambdaFunctionArn": "arn:aws:lambda:us-east-1:286214959794:function:s3_data_etl:master",
          "Events": [
            "s3:ObjectCreated:Put"
          ],
          "Filter": {
            "Key": {
              "FilterRules": [
                {
                  "Name": "prefix",
                  "Value": "fedex-louisville/heartbeat.unixtimestamp"
                }
              ]
            }
          }
        },
        {
          "Id": "sensor_etl",
          "LambdaFunctionArn": "arn:aws:lambda:us-east-1:286214959794:function:s3_data_etl:master",
          "Events": [
            "s3:ObjectCreated:Put"
          ],
          "Filter": {
            "Key": {
              "FilterRules": [
                {
                  "Name": "prefix",
                  "Value": "fedex-louisville/sensor/"
                }
              ]
            }
          }
        },
        {
          "Id": "plc_etl",
          "LambdaFunctionArn": "arn:aws:lambda:us-east-1:286214959794:function:s3_data_etl:master",
          "Events": [
            "s3:ObjectCreated:Put"
          ],
          "Filter": {
            "Key": {
              "FilterRules": [
                {
                  "Name": "prefix",
                  "Value": "fedex-louisville/plc/"
                }
              ]
            }
          }
        },
        {
          "Id": "ambient_env_etl",
          "LambdaFunctionArn": "arn:aws:lambda:us-east-1:286214959794:function:s3_data_etl:master",
          "Events": [
            "s3:ObjectCreated:Put"
          ],
          "Filter": {
            "Key": {
              "FilterRules": [
                {
                  "Name": "prefix",
                  "Value": "fedex-louisville/ambient_env/"
                }
              ]
            }
          }
        }
      ]
    }
  },
  "iot": {
    "thing_name": "fedex-louisville_Core",
    "cert_policy": {
      "Version": "2012-10-17",
      "Statement": [
        {
          "Effect": "Allow",
          "Action": [
            "iot:Publish",
            "iot:Subscribe",
            "iot:Connect",
            "iot:Receive"
          ],
          "Resource": [
            "*"
          ]
        },
        {
          "Effect": "Allow",
          "Action": [
            "iot:GetThingShadow",
            "iot:UpdateThingShadow",
            "iot:DeleteThingShadow"
          ],
          "Resource": [
            "*"
          ]
        },
        {
          "Effect": "Allow",
          "Action": [
            "greengrass:*"
          ],
          "Resource": [
            "*"
          ]
        }
      ]
    }
  },
  "greengrass": {
    "gateway_hardware": {
      "connection": {
        "host": "166.180.6.125",
        "port": 22,
        "user": "mhs-predict",
        "pwd": "aEP6Jk$'5FE)wM,j",
        "key_path": ""
      },
      "ggc_path": "/opt/greengrass",
      "ggc_config": {
        "coreThing": {
          "caPath": "root.ca.pem",
          "certPath": "a68c2ab219.cert.pem",
          "keyPath": "a68c2ab219.private.key",
          "thingArn": "arn:aws:iot:us-east-1:286214959794:thing/fedex-louisville_Core",
          "iotHost": "alps0oc9fcddm.iot.us-east-1.amazonaws.com",
          "ggHost": "greengrass.iot.us-east-1.amazonaws.com"
        },
        "runtime": {
          "cgroup": {
            "useSystemd": "yes"
          }
        },
        "managedRespawn": false
      },
      "cert_id": "a68c2ab219"
    },
    "thing_connectivity": [
      {
        "HostAddress": "127.0.0.1",
        "Id": "fedex-louisville_local_v4",
        "PortNumber": 8883
      },
      {
        "HostAddress": "::1",
        "Id": "fedex-louisville_local_v6",
        "PortNumber": 8883
      }
    ],
    "role_arn": "arn:aws:iam::286214959794:role/AWSGreengrassAccessRole",
    "definitions": {
      "group_id": "d092ed3e-4c5e-4eb1-b6a2-2cffe6395b21",
      "logger_def_id": "fa5617b2-ceff-4238-bc88-87f60bd9d1b5",
      "resource_def_id": "c8d1f837-9aa3-4815-a3a8-fa278f332e66",
      "function_def_id": "d6d77bd6-29a7-4419-8a1e-6b2f92b3147d",
      "subscription_def_id": "67755fee-fb6d-44c7-a7bc-53caf9c6bba9",
      "core_def_id": "d75a36a7-d367-49e0-9ae7-097915d8b657",
      "core_def_version_arn": "arn:aws:greengrass:us-east-1:286214959794:/greengrass/definition/cores/d75a36a7-d367-49e0-9ae7-097915d8b657/versions/3719929f-a20a-4f4f-9245-fc85361f3237"
    },
    "loggers": [
      {
        "Component": "GreengrassSystem",
        "Id": "fedex-louisville_system_logger",
        "Level": "INFO",
        "Space": 1000000,
        "Type": "FileSystem"
      },
      {
        "Component": "Lambda",
        "Id": "fedex-louisville_lambda_logger",
        "Level": "INFO",
        "Space": 1000000,
        "Type": "FileSystem"
      }
    ],
    "resources": [
      {
        "Id": "fedex-louisville_cache_volume",
        "Name": "cache_volume",
        "ResourceDataContainer": {
          "LocalVolumeResourceData": {
            "GroupOwnerSetting": {
              "AutoAddGroupOwner": false
            },
            "DestinationPath": "/var/cache/gateway_cache",
            "SourcePath": "/var/cache/gateway_cache"
          }
        }
      },
      {
        "Id": "fedex-louisville_ttyS2",
        "Name": "ttyS2",
        "ResourceDataContainer": {
          "LocalDeviceResourceData": {
            "GroupOwnerSetting": {
              "GroupOwner": "dialout"
            },
            "SourcePath": "/dev/ttyS2"
          }
        }
      }
    ],
    "subscriptions": [
      {
        "Id": "fedex-louisville-ssh-tunnel",
        "Source": "arn:aws:lambda:us-east-1:286214959794:function:gateway-tunnel:master",
        "Subject": "fedex-louisville/ssh-tunnel",
        "Target": "cloud"
      },
      {
        "Id": "fedex-louisville-ssh-tunnel-invoke",
        "Source": "cloud",
        "Subject": "fedex-louisville/ssh-tunnel/invoke",
        "Target": "arn:aws:lambda:us-east-1:286214959794:function:gateway-tunnel:master"
      }
    ],
    "functions": [
      {
        "Id": "fedex-louisville_gateway-reader",
        "FunctionArn": "arn:aws:lambda:us-east-1:286214959794:function:gateway-reader:master",
        "FunctionConfiguration": {
          "EncodingType": "json",
          "Environment": {
            "AccessSysfs": false,
            "ResourceAccessPolicies": [
              {
                "Permission": "rw",
                "ResourceId": "fedex-louisville_cache_volume"
              },
              {
                "Permission": "rw",
                "ResourceId": "fedex-louisville_ttyS2"
              }
            ],
            "Variables": {
              "GATEWAY": "fedex-louisville",
              "CONNECTOR": "connector.s3.Connector",
              "CONNECTOR_KWARGS": "{\"bucket_name\": \"mhspredict-site-fedex-louisville\"}",
              "SITE": "fedex-louisville",
              "DEVICE_SCHEMA": "{\"/dev/ttyS2\": [{\"devices\": [\"2\", \"3\", \"4\", \"5\", \"6\", \"10\", \"12\", \"13\", \"14\", \"15\", \"16\", \"17\", \"18\", \"19\", \"20\", \"22\", \"23\", \"24\", \"25\", \"26\", \"27\", \"28\", \"29\", \"30\", \"31\", \"32\", \"33\", \"34\", \"35\", \"36\", \"37\", \"38\", \"39\", \"40\", \"41\", \"42\", \"43\", \"44\", \"45\", \"46\", \"47\", \"48\", \"49\", \"50\", \"51\", \"52\", \"53\", \"54\", \"55\", \"56\", \"57\", \"58\", \"59\", \"60\", \"61\", \"62\", \"63\", \"64\", \"65\", \"66\", \"67\", \"68\", \"69\", \"70\", \"71\", \"72\", \"73\", \"74\", \"75\", \"76\", \"80\", \"81\", \"82\", \"83\", \"84\", \"85\", \"86\", \"87\", \"88\", \"89\", \"99\"], \"interval\": 10.0, \"options\": {\"baudrate\": 19200, \"timeout\": 0.5}, \"type\": \"qm42vt2\"}], \"enip\": [{\"devices\": [\"SS1_4_UPLOAD\", \"SS2_4_UPLOAD\", \"SR1_8_UPLOAD\", \"SR1_9_UPLOAD\", \"SR1_10_UPLOAD\", \"SR2_8_UPLOAD\", \"SR2_9_UPLOAD\", \"SR2_10_UPLOAD\", \"GP1_1_UPLOAD\", \"GP1_2_UPLOAD\", \"GP1_3_UPLOAD\", \"GP1_4_UPLOAD\", \"GP2_1_UPLOAD\", \"GP2_2_UPLOAD\", \"GP2_3_UPLOAD\", \"GP2_4_UPLOAD\"], \"interval\": 60.0, \"options\": {\"plc_host\": \"192.168.1.5\", \"plc_port\": 44818, \"route_path\": [{\"link\": 2, \"port\": 1}]}, \"type\": \"csv_plc\"}]}"
            }
          },
          "Executable": "main.handler",
          "MemorySize": 128000,
          "Pinned": true,
          "Timeout": 30
        }
      },
      {
        "Id": "fedex-louisville-gateway-tunnel",
        "FunctionArn": "arn:aws:lambda:us-east-1:286214959794:function:gateway-tunnel:master",
        "FunctionConfiguration": {
          "EncodingType": "json",
          "Environment": {
            "AccessSysfs": false,
            "Variables": {
              "GATEWAY": "fedex-louisville"
            }
          },
          "Executable": "main.handler",
          "Pinned": true,
          "MemorySize": 128000,
          "Timeout": 30
        }
      }
    ]
  }
}